{
  "photos": {
    "page": 1,
    "pages": 1357,
    "perpage": 100,
    "total": 135603,
    "photo": [
      {
        "id": "51408114727",
        "owner": "192339987@N07",
        "secret": "cbb73b4fa6",
        "server": "65535",
        "farm": 66,
        "title": "",
        "ispublic": 1,
        "isfriend": 0,
        "isfamily": 0
      },
      {
        "id": "51409714755",
        "owner": "145392722@N03",
        "secret": "c4a434b6ae",
        "server": "65535",
        "farm": 66,
        "title": "— Late Night",
        "ispublic": 1,
        "isfriend": 0,
        "isfamily": 0
      },
      {
        "id": "51408036172",
        "owner": "52913721@N08",
        "secret": "e491cc18f1",
        "server": "65535",
        "farm": 66,
        "title": "Sallow Kitten (Furcula furcula)",
        "ispublic": 1,
        "isfriend": 0,
        "isfamily": 0
      },
      {
        "id": "51408774276",
        "owner": "52913721@N08",
        "secret": "cb22713b10",
        "server": "65535",
        "farm": 66,
        "title": "Sallow Kitten (Furcula furcula)",
        "ispublic": 1,
        "isfriend": 0,
        "isfamily": 0
      },
      {
        "id": "51407892532",
        "owner": "193864358@N08",
        "secret": "9a33604bf3",
        "server": "65535",
        "farm": 66,
        "title": "IMG_2646",
        "ispublic": 1,
        "isfriend": 0,
        "isfamily": 0
      },
      {
        "id": "51409585905",
        "owner": "51388540@N05",
        "secret": "379e8bd70d",
        "server": "65535",
        "farm": 66,
        "title": "10598 - Glauco",
        "ispublic": 1,
        "isfriend": 0,
        "isfamily": 0
      },
      {
        "id": "51409565210",
        "owner": "28277802@N00",
        "secret": "2c1be9b41d",
        "server": "65535",
        "farm": 66,
        "title": "Tess",
        "ispublic": 1,
        "isfriend": 0,
        "isfamily": 0
      },
      {
        "id": "51408859703",
        "owner": "28277802@N00",
        "secret": "108d00887d",
        "server": "65535",
        "farm": 66,
        "title": "Tess",
        "ispublic": 1,
        "isfriend": 0,
        "isfamily": 0
      },
      {
        "id": "51408586696",
        "owner": "28277802@N00",
        "secret": "f1239e3ac7",
        "server": "65535",
        "farm": 66,
        "title": "Tess",
        "ispublic": 1,
        "isfriend": 0,
        "isfamily": 0
      },
      {
        "id": "51408586216",
        "owner": "28277802@N00",
        "secret": "ed4b5964e9",
        "server": "65535",
        "farm": 66,
        "title": "Beans",
        "ispublic": 1,
        "isfriend": 0,
        "isfamily": 0
      },
      {
        "id": "51408585916",
        "owner": "28277802@N00",
        "secret": "7b3c29a765",
        "server": "65535",
        "farm": 66,
        "title": "Tess Beans",
        "ispublic": 1,
        "isfriend": 0,
        "isfamily": 0
      },
      {
        "id": "51408585646",
        "owner": "28277802@N00",
        "secret": "f2ac255ca1",
        "server": "65535",
        "farm": 66,
        "title": "Teefies",
        "ispublic": 1,
        "isfriend": 0,
        "isfamily": 0
      },
      {
        "id": "51408584856",
        "owner": "28277802@N00",
        "secret": "e1ecf8257f",
        "server": "65535",
        "farm": 66,
        "title": "Tess Blep",
        "ispublic": 1,
        "isfriend": 0,
        "isfamily": 0
      },
      {
        "id": "51407800842",
        "owner": "191851224@N06",
        "secret": "27ded6964b",
        "server": "65535",
        "farm": 66,
        "title": "~Kitten & kaboodle~skulls blue outfit",
        "ispublic": 1,
        "isfriend": 0,
        "isfamily": 0
      },
      {
        "id": "51409514715",
        "owner": "44996810@N07",
        "secret": "f9048fce83",
        "server": "65535",
        "farm": 66,
        "title": "20210826_082013",
        "ispublic": 1,
        "isfriend": 0,
        "isfamily": 0
      },
      {
        "id": "51408535956",
        "owner": "44996810@N07",
        "secret": "a36b966acd",
        "server": "65535",
        "farm": 66,
        "title": "20210826_081942",
        "ispublic": 1,
        "isfriend": 0,
        "isfamily": 0
      },
      {
        "id": "51408802258",
        "owner": "44996810@N07",
        "secret": "5520c5bc76",
        "server": "65535",
        "farm": 66,
        "title": "20210826_091035GG",
        "ispublic": 1,
        "isfriend": 0,
        "isfamily": 0
      },
      {
        "id": "51407779417",
        "owner": "44996810@N07",
        "secret": "9a72c16d8a",
        "server": "65535",
        "farm": 66,
        "title": "20210826_081927",
        "ispublic": 1,
        "isfriend": 0,
        "isfamily": 0
      },
      {
        "id": "51408478361",
        "owner": "44996810@N07",
        "secret": "ac7f3eb729",
        "server": "65535",
        "farm": 66,
        "title": "P1280284gg",
        "ispublic": 1,
        "isfriend": 0,
        "isfamily": 0
      },
      {
        "id": "51408744063",
        "owner": "44996810@N07",
        "secret": "5db62f9f68",
        "server": "65535",
        "farm": 66,
        "title": "P1280283gg",
        "ispublic": 1,
        "isfriend": 0,
        "isfamily": 0
      },
      {
        "id": "51407720652",
        "owner": "44996810@N07",
        "secret": "b1ffdf2390",
        "server": "65535",
        "farm": 66,
        "title": "P1280291gg",
        "ispublic": 1,
        "isfriend": 0,
        "isfamily": 0
      },
      {
        "id": "51409444615",
        "owner": "44996810@N07",
        "secret": "c7cf9fb0f6",
        "server": "65535",
        "farm": 66,
        "title": "P1280292gg",
        "ispublic": 1,
        "isfriend": 0,
        "isfamily": 0
      },
      {
        "id": "51409221174",
        "owner": "44996810@N07",
        "secret": "d667a62833",
        "server": "65535",
        "farm": 66,
        "title": "P1280294gg",
        "ispublic": 1,
        "isfriend": 0,
        "isfamily": 0
      },
      {
        "id": "51409218109",
        "owner": "44996810@N07",
        "secret": "50577ff46a",
        "server": "65535",
        "farm": 66,
        "title": "P1280299gg",
        "ispublic": 1,
        "isfriend": 0,
        "isfamily": 0
      },
      {
        "id": "51407703152",
        "owner": "44996810@N07",
        "secret": "e748736ffa",
        "server": "65535",
        "farm": 66,
        "title": "P1280300gg",
        "ispublic": 1,
        "isfriend": 0,
        "isfamily": 0
      },
      {
        "id": "51408720648",
        "owner": "44996810@N07",
        "secret": "5f80895934",
        "server": "65535",
        "farm": 66,
        "title": "P1280302gg",
        "ispublic": 1,
        "isfriend": 0,
        "isfamily": 0
      },
      {
        "id": "51407699042",
        "owner": "44996810@N07",
        "secret": "658f1f1e23",
        "server": "65535",
        "farm": 66,
        "title": "P1280307gg",
        "ispublic": 1,
        "isfriend": 0,
        "isfamily": 0
      },
      {
        "id": "51408410361",
        "owner": "93733769@N03",
        "secret": "b3b73c68a1",
        "server": "65535",
        "farm": 66,
        "title": "Bobcat Kitten, St. Marks National Wildlife Refuge, Wakulla County, Florida",
        "ispublic": 1,
        "isfriend": 0,
        "isfamily": 0
      },
      {
        "id": "51409449575",
        "owner": "19872565@N00",
        "secret": "234c7fb0da",
        "server": "65535",
        "farm": 66,
        "title": "20110721_18030c",
        "ispublic": 1,
        "isfriend": 0,
        "isfamily": 0
      },
      {
        "id": "51407687952",
        "owner": "44996810@N07",
        "secret": "c7eac82fd0",
        "server": "65535",
        "farm": 66,
        "title": "P1280309gg",
        "ispublic": 1,
        "isfriend": 0,
        "isfamily": 0
      },
      {
        "id": "51409413035",
        "owner": "44996810@N07",
        "secret": "e59e7ab93a",
        "server": "65535",
        "farm": 66,
        "title": "P1280310gg",
        "ispublic": 1,
        "isfriend": 0,
        "isfamily": 0
      },
      {
        "id": "51408433276",
        "owner": "44996810@N07",
        "secret": "706b43539b",
        "server": "65535",
        "farm": 66,
        "title": "P1280315gg",
        "ispublic": 1,
        "isfriend": 0,
        "isfamily": 0
      },
      {
        "id": "51409409095",
        "owner": "44996810@N07",
        "secret": "14d6fa9851",
        "server": "65535",
        "farm": 66,
        "title": "P1280316gg",
        "ispublic": 1,
        "isfriend": 0,
        "isfamily": 0
      },
      {
        "id": "51409406205",
        "owner": "44996810@N07",
        "secret": "d98750b513",
        "server": "65535",
        "farm": 66,
        "title": "P1280318gg",
        "ispublic": 1,
        "isfriend": 0,
        "isfamily": 0
      },
      {
        "id": "51408427231",
        "owner": "44996810@N07",
        "secret": "f538188404",
        "server": "65535",
        "farm": 66,
        "title": "P1280322gg",
        "ispublic": 1,
        "isfriend": 0,
        "isfamily": 0
      },
      {
        "id": "51409180824",
        "owner": "44996810@N07",
        "secret": "2d697889c1",
        "server": "65535",
        "farm": 66,
        "title": "P1280331gg",
        "ispublic": 1,
        "isfriend": 0,
        "isfamily": 0
      },
      {
        "id": "51409399250",
        "owner": "44996810@N07",
        "secret": "d3fd694d5a",
        "server": "65535",
        "farm": 66,
        "title": "P1280335gg",
        "ispublic": 1,
        "isfriend": 0,
        "isfamily": 0
      },
      {
        "id": "51407616817",
        "owner": "193765707@N06",
        "secret": "4d183559fa",
        "server": "65535",
        "farm": 66,
        "title": "Ahoy Matey",
        "ispublic": 1,
        "isfriend": 0,
        "isfamily": 0
      },
      {
        "id": "51409344605",
        "owner": "193765707@N06",
        "secret": "45a249bf95",
        "server": "65535",
        "farm": 66,
        "title": "Sleep Mode",
        "ispublic": 1,
        "isfriend": 0,
        "isfamily": 0
      },
      {
        "id": "51408637063",
        "owner": "193765707@N06",
        "secret": "46d75de222",
        "server": "65535",
        "farm": 66,
        "title": "Daydreaming",
        "ispublic": 1,
        "isfriend": 0,
        "isfamily": 0
      },
      {
        "id": "51408367051",
        "owner": "193765707@N06",
        "secret": "72e9b412cf",
        "server": "65535",
        "farm": 66,
        "title": "Staring Contest",
        "ispublic": 1,
        "isfriend": 0,
        "isfamily": 0
      },
      {
        "id": "51407594702",
        "owner": "188662742@N07",
        "secret": "80d02b52c4",
        "server": "65535",
        "farm": 66,
        "title": "Around The House",
        "ispublic": 1,
        "isfriend": 0,
        "isfamily": 0
      },
      {
        "id": "51409246655",
        "owner": "51388540@N05",
        "secret": "caea05fe41",
        "server": "65535",
        "farm": 66,
        "title": "10624 - Galatea",
        "ispublic": 1,
        "isfriend": 0,
        "isfamily": 0
      },
      {
        "id": "51408189146",
        "owner": "190663875@N04",
        "secret": "56d0df294f",
        "server": "65535",
        "farm": 66,
        "title": "Kitten in tree Portrait - 2",
        "ispublic": 1,
        "isfriend": 0,
        "isfamily": 0
      },
      {
        "id": "51408189106",
        "owner": "190663875@N04",
        "secret": "3efe8bafbd",
        "server": "65535",
        "farm": 66,
        "title": "Slouched Sleeping Kitten",
        "ispublic": 1,
        "isfriend": 0,
        "isfamily": 0
      },
      {
        "id": "51407425007",
        "owner": "51388540@N05",
        "secret": "d3f1dbd44b",
        "server": "65535",
        "farm": 66,
        "title": "10569 - Yawn",
        "ispublic": 1,
        "isfriend": 0,
        "isfamily": 0
      },
      {
        "id": "51408165871",
        "owner": "96844815@N03",
        "secret": "fddb3c3504",
        "server": "65535",
        "farm": 66,
        "title": "The Discovery",
        "ispublic": 1,
        "isfriend": 0,
        "isfamily": 0
      },
      {
        "id": "51408137981",
        "owner": "152661162@N06",
        "secret": "43274e8725",
        "server": "65535",
        "farm": 66,
        "title": "Thinking of adopting? Now is a great time! #cleartheshelters is currently going on until Sep 5! Cats up to age 6 are only $75, cats age 7+ are free (Stacy and Henry) and Bonded Pairs are free (Joy and Miracle, Kiwi and Gordon) #kitten #kitty #fluff #cat #",
        "ispublic": 1,
        "isfriend": 0,
        "isfamily": 0
      },
      {
        "id": "51408893239",
        "owner": "44351758@N00",
        "secret": "ca06243b06",
        "server": "65535",
        "farm": 66,
        "title": "kittens cuddling April",
        "ispublic": 1,
        "isfriend": 0,
        "isfamily": 0
      },
      {
        "id": "51409099885",
        "owner": "27318585@N04",
        "secret": "15f75c0b80",
        "server": "65535",
        "farm": 66,
        "title": "Sneakers",
        "ispublic": 1,
        "isfriend": 0,
        "isfamily": 0
      },
      {
        "id": "51408390873",
        "owner": "27318585@N04",
        "secret": "6fc9b37987",
        "server": "65535",
        "farm": 66,
        "title": "Sneakers",
        "ispublic": 1,
        "isfriend": 0,
        "isfamily": 0
      },
      {
        "id": "51409099505",
        "owner": "27318585@N04",
        "secret": "54120d9dc4",
        "server": "65535",
        "farm": 66,
        "title": "Sneakers",
        "ispublic": 1,
        "isfriend": 0,
        "isfamily": 0
      },
      {
        "id": "51407186222",
        "owner": "139664638@N02",
        "secret": "c42799a4ae",
        "server": "65535",
        "farm": 66,
        "title": "Meow",
        "ispublic": 1,
        "isfriend": 0,
        "isfamily": 0
      },
      {
        "id": "51407169812",
        "owner": "111723460@N03",
        "secret": "a772ffd7c4",
        "server": "65535",
        "farm": 66,
        "title": "New Addition to the Family",
        "ispublic": 1,
        "isfriend": 0,
        "isfamily": 0
      },
      {
        "id": "51408664359",
        "owner": "54716239@N02",
        "secret": "edc5f09a78",
        "server": "0",
        "farm": 0,
        "title": "Short clip - Boobo Feeding Kitties 8-28-21",
        "ispublic": 1,
        "isfriend": 0,
        "isfamily": 0
      },
      {
        "id": "51408110618",
        "owner": "39015914@N02",
        "secret": "33aea4c2c3",
        "server": "65535",
        "farm": 66,
        "title": "From Keith A (USA)",
        "ispublic": 1,
        "isfriend": 0,
        "isfamily": 0
      },
      {
        "id": "51408567479",
        "owner": "127070140@N08",
        "secret": "77e7486fde",
        "server": "65535",
        "farm": 66,
        "title": "Saturday night 210828",
        "ispublic": 1,
        "isfriend": 0,
        "isfamily": 0
      },
      {
        "id": "51407050727",
        "owner": "83323987@N00",
        "secret": "66a160be11",
        "server": "65535",
        "farm": 66,
        "title": "BATTINA 1 0f 2",
        "ispublic": 1,
        "isfriend": 0,
        "isfamily": 0
      },
      {
        "id": "51408725470",
        "owner": "114250564@N05",
        "secret": "918dbf1aa5",
        "server": "65535",
        "farm": 66,
        "title": "Clucky, Astera and Kitten",
        "ispublic": 1,
        "isfriend": 0,
        "isfamily": 0
      },
      {
        "id": "51408452015",
        "owner": "193721684@N05",
        "secret": "157c69f28e",
        "server": "65535",
        "farm": 66,
        "title": "Whimberly",
        "ispublic": 1,
        "isfriend": 0,
        "isfamily": 0
      },
      {
        "id": "51407679973",
        "owner": "193824679@N06",
        "secret": "e2861e8354",
        "server": "65535",
        "farm": 66,
        "title": "Why Are Golden Retrievers So Nice",
        "ispublic": 1,
        "isfriend": 0,
        "isfamily": 0
      },
      {
        "id": "51408087424",
        "owner": "193795265@N02",
        "secret": "90a9c19dba",
        "server": "65535",
        "farm": 66,
        "title": "bellaB",
        "ispublic": 1,
        "isfriend": 0,
        "isfamily": 0
      },
      {
        "id": "51408308200",
        "owner": "193795265@N02",
        "secret": "8b50d7e18c",
        "server": "65535",
        "farm": 66,
        "title": "bellaB",
        "ispublic": 1,
        "isfriend": 0,
        "isfamily": 0
      },
      {
        "id": "51407596838",
        "owner": "193795265@N02",
        "secret": "e0bee9a104",
        "server": "65535",
        "farm": 66,
        "title": "bellaB",
        "ispublic": 1,
        "isfriend": 0,
        "isfamily": 0
      },
      {
        "id": "51407329636",
        "owner": "193795265@N02",
        "secret": "7695698b41",
        "server": "65535",
        "farm": 66,
        "title": "bellaB",
        "ispublic": 1,
        "isfriend": 0,
        "isfamily": 0
      },
      {
        "id": "51406580947",
        "owner": "193795265@N02",
        "secret": "cfcc060080",
        "server": "65535",
        "farm": 66,
        "title": "bellaB",
        "ispublic": 1,
        "isfriend": 0,
        "isfamily": 0
      },
      {
        "id": "51406580962",
        "owner": "193795265@N02",
        "secret": "de66a0525b",
        "server": "65535",
        "farm": 66,
        "title": "bellaB",
        "ispublic": 1,
        "isfriend": 0,
        "isfamily": 0
      },
      {
        "id": "51407596828",
        "owner": "193795265@N02",
        "secret": "400c18b27c",
        "server": "65535",
        "farm": 66,
        "title": "bellaB",
        "ispublic": 1,
        "isfriend": 0,
        "isfamily": 0
      },
      {
        "id": "51408308160",
        "owner": "193795265@N02",
        "secret": "3acb1f2a4d",
        "server": "65535",
        "farm": 66,
        "title": "bellaB",
        "ispublic": 1,
        "isfriend": 0,
        "isfamily": 0
      },
      {
        "id": "51406580942",
        "owner": "193795265@N02",
        "secret": "a543c81ce1",
        "server": "65535",
        "farm": 66,
        "title": "bellaB",
        "ispublic": 1,
        "isfriend": 0,
        "isfamily": 0
      },
      {
        "id": "51408017614",
        "owner": "8374715@N06",
        "secret": "1776d0d014",
        "server": "65535",
        "farm": 66,
        "title": "Fiona",
        "ispublic": 1,
        "isfriend": 0,
        "isfamily": 0
      },
      {
        "id": "51360913820",
        "owner": "193686493@N08",
        "secret": "6e667566f5",
        "server": "65535",
        "farm": 66,
        "title": "Tasting the air",
        "ispublic": 1,
        "isfriend": 0,
        "isfamily": 0
      },
      {
        "id": "51406778596",
        "owner": "75885098@N05",
        "secret": "2868e765db",
        "server": "65535",
        "farm": 66,
        "title": "Bedmaking, part 1",
        "ispublic": 1,
        "isfriend": 0,
        "isfamily": 0
      },
      {
        "id": "51406777906",
        "owner": "75885098@N05",
        "secret": "e7f71bb9ff",
        "server": "65535",
        "farm": 66,
        "title": "Bedmaking, part 2",
        "ispublic": 1,
        "isfriend": 0,
        "isfamily": 0
      },
      {
        "id": "51407046331",
        "owner": "193781946@N08",
        "secret": "ddb2334dcf",
        "server": "65535",
        "farm": 66,
        "title": "Life Is Good A Cat Makes It Better 2",
        "ispublic": 1,
        "isfriend": 0,
        "isfamily": 0
      },
      {
        "id": "51407046326",
        "owner": "193781946@N08",
        "secret": "e337bc262a",
        "server": "65535",
        "farm": 66,
        "title": "Life Is Good A Cat Makes It Better 2",
        "ispublic": 1,
        "isfriend": 0,
        "isfamily": 0
      },
      {
        "id": "51408028925",
        "owner": "193781946@N08",
        "secret": "7777317e5f",
        "server": "65535",
        "farm": 66,
        "title": "Life Is Good A Cat Makes It Better 2",
        "ispublic": 1,
        "isfriend": 0,
        "isfamily": 0
      },
      {
        "id": "51407807414",
        "owner": "193781946@N08",
        "secret": "f7c74a6290",
        "server": "65535",
        "farm": 66,
        "title": "Life Is Good A Cat Makes It Better 2",
        "ispublic": 1,
        "isfriend": 0,
        "isfamily": 0
      },
      {
        "id": "51408022525",
        "owner": "156443183@N08",
        "secret": "53ec21352d",
        "server": "65535",
        "farm": 66,
        "title": "cookie",
        "ispublic": 1,
        "isfriend": 0,
        "isfamily": 0
      },
      {
        "id": "51407301253",
        "owner": "30098550@N00",
        "secret": "8b0fa10e6e",
        "server": "65535",
        "farm": 66,
        "title": "Involuntary Sharing",
        "ispublic": 1,
        "isfriend": 0,
        "isfamily": 0
      },
      {
        "id": "51406283522",
        "owner": "30098550@N00",
        "secret": "0830d5f230",
        "server": "65535",
        "farm": 66,
        "title": "then Otis started grooming Muse",
        "ispublic": 1,
        "isfriend": 0,
        "isfamily": 0
      },
      {
        "id": "51407030051",
        "owner": "30098550@N00",
        "secret": "64c8a734b8",
        "server": "65535",
        "farm": 66,
        "title": "Otis grooming Muse #2",
        "ispublic": 1,
        "isfriend": 0,
        "isfamily": 0
      },
      {
        "id": "51407788734",
        "owner": "30098550@N00",
        "secret": "44fff748ab",
        "server": "65535",
        "farm": 66,
        "title": "Muse pushes his head into Otis",
        "ispublic": 1,
        "isfriend": 0,
        "isfamily": 0
      },
      {
        "id": "51407788604",
        "owner": "30098550@N00",
        "secret": "7fbce32a74",
        "server": "65535",
        "farm": 66,
        "title": "the one that got away",
        "ispublic": 1,
        "isfriend": 0,
        "isfamily": 0
      },
      {
        "id": "51406280447",
        "owner": "30098550@N00",
        "secret": "d449393ae5",
        "server": "65535",
        "farm": 66,
        "title": "the other one that got away",
        "ispublic": 1,
        "isfriend": 0,
        "isfamily": 0
      },
      {
        "id": "51408007220",
        "owner": "146963647@N08",
        "secret": "99420d6156",
        "server": "65535",
        "farm": 66,
        "title": "lilly the kitten painting",
        "ispublic": 1,
        "isfriend": 0,
        "isfamily": 0
      },
      {
        "id": "51407742330",
        "owner": "28277802@N00",
        "secret": "fe6b9323c0",
        "server": "65535",
        "farm": 66,
        "title": "Tess",
        "ispublic": 1,
        "isfriend": 0,
        "isfamily": 0
      },
      {
        "id": "51407742195",
        "owner": "28277802@N00",
        "secret": "9459ef79d6",
        "server": "65535",
        "farm": 66,
        "title": "Tess",
        "ispublic": 1,
        "isfriend": 0,
        "isfamily": 0
      },
      {
        "id": "51407741570",
        "owner": "28277802@N00",
        "secret": "ee9a802125",
        "server": "65535",
        "farm": 66,
        "title": "Tess",
        "ispublic": 1,
        "isfriend": 0,
        "isfamily": 0
      },
      {
        "id": "51407741510",
        "owner": "28277802@N00",
        "secret": "2bc873ebaf",
        "server": "65535",
        "farm": 66,
        "title": "Tess",
        "ispublic": 1,
        "isfriend": 0,
        "isfamily": 0
      },
      {
        "id": "51406758996",
        "owner": "28277802@N00",
        "secret": "d25dbdea72",
        "server": "65535",
        "farm": 66,
        "title": "Tess",
        "ispublic": 1,
        "isfriend": 0,
        "isfamily": 0
      },
      {
        "id": "51407002493",
        "owner": "89270631@N05",
        "secret": "3ec791c376",
        "server": "65535",
        "farm": 66,
        "title": "Kittens need homes!",
        "ispublic": 1,
        "isfriend": 0,
        "isfamily": 0
      },
      {
        "id": "51406732346",
        "owner": "89270631@N05",
        "secret": "28413402c7",
        "server": "65535",
        "farm": 66,
        "title": "Kittens need homes!",
        "ispublic": 1,
        "isfriend": 0,
        "isfamily": 0
      },
      {
        "id": "51406732366",
        "owner": "89270631@N05",
        "secret": "836c645a7c",
        "server": "65535",
        "farm": 66,
        "title": "Kittens need homes",
        "ispublic": 1,
        "isfriend": 0,
        "isfamily": 0
      },
      {
        "id": "51405983942",
        "owner": "89270631@N05",
        "secret": "089f7cf07a",
        "server": "65535",
        "farm": 66,
        "title": "Kittens need homes!",
        "ispublic": 1,
        "isfriend": 0,
        "isfamily": 0
      },
      {
        "id": "51405983932",
        "owner": "89270631@N05",
        "secret": "174e9905f7",
        "server": "65535",
        "farm": 66,
        "title": "Kittens need homes",
        "ispublic": 1,
        "isfriend": 0,
        "isfamily": 0
      },
      {
        "id": "51406732291",
        "owner": "89270631@N05",
        "secret": "ce465af004",
        "server": "65535",
        "farm": 66,
        "title": "Kitten need homes!",
        "ispublic": 1,
        "isfriend": 0,
        "isfamily": 0
      },
      {
        "id": "51405983922",
        "owner": "89270631@N05",
        "secret": "c80c3a840e",
        "server": "65535",
        "farm": 66,
        "title": "Kittens need homes",
        "ispublic": 1,
        "isfriend": 0,
        "isfamily": 0
      },
      {
        "id": "51405979657",
        "owner": "89270631@N05",
        "secret": "51f6586295",
        "server": "65535",
        "farm": 66,
        "title": "Kittens need homes!",
        "ispublic": 1,
        "isfriend": 0,
        "isfamily": 0
      },
      {
        "id": "51406908858",
        "owner": "193709722@N05",
        "secret": "a9166cf754",
        "server": "65535",
        "farm": 66,
        "title": "Black Panther",
        "ispublic": 1,
        "isfriend": 0,
        "isfamily": 0
      }
    ]
  },
  "stat": "ok"
}
